[
   {
      "facebookUrl":"https://www.facebook.com/unitednations/posts/pfbid045as8QKV2uLVYe2NumDPs7a68Hr4P5cjmoyMRo2e4dj4p3rp2gWNNj948Uu7BVcxl",
      "commentUrl":"https://www.facebook.com/unitednations/posts/pfbid045as8QKV2uLVYe2NumDPs7a68Hr4P5cjmoyMRo2e4dj4p3rp2gWNNj948Uu7BVcxl?comment_id=961647078809735",
      "id":"Y29tbWVudDo4MjM2ODk1NzY0NTM3MzZfOTYxNjQ3MDc4ODA5NzM1",
      "feedbackId":"ZmVlZGJhY2s6ODIzNjg5NTc2NDUzNzM2Xzk2MTY0NzA3ODgwOTczNQ==",
      "date":"2024-04-03T08:58:38.000Z",
      "text":"Birthday wishes Dr.Jane Goodall. world.",
      "profileUrl":"https://www.facebook.com/binu.pg.165",
      "profilePicture":"https://scontent-qro1-2.xx.fbcdn.net/v/t1.6435-1/35972180_101293254116329_4437214138942357504_n.jpg?stp=cp0_dst-jpg_p32x32&_nc_cat=109&ccb=1-7&_nc_sid=5f2048&_nc_ohc=HE0vOufpJEQQ7kNvgH6tqO1&_nc_ht=scontent-qro1-2.xx&oh=00_AYC7IaLq8NgWPijHLDBT5Lc31b7c-2m37K1OkrCzjH1G3g&oe=6677AF65",
      "profileId":"100064878993116",
      "profileName":"Build Up",
      "likesCount":"4.0k",
      "commentsCount":1,
      "facebookId":"823689576453736",
      "postTitle":"Happy 90th birthday to United Nations Messenger of peace, Dr. Jane Goodall!\n\nThank you for your tireless commitment to protecting the environment. https://www.un.org/en/messengers-peace/jane-goodall",
      "pageAdLibrary":{
         "is_business_page_active":false,
         "id":"54779960819"
      }
   },
   {
      "facebookUrl":"https://www.facebook.com/unitednations/posts/pfbid045as8QKV2uLVYe2NumDPs7a68Hr4P5cjmoyMRo2e4dj4p3rp2gWNNj948Uu7BVcxl",
      "commentUrl":"https://www.facebook.com/unitednations/posts/pfbid045as8QKV2uLVYe2NumDPs7a68Hr4P5cjmoyMRo2e4dj4p3rp2gWNNj948Uu7BVcxl?comment_id=772549208174638",
      "id":"Y29tbWVudDo4MjM2ODk1NzY0NTM3MzZfNzcyNTQ5MjA4MTc0NjM4",
      "feedbackId":"ZmVlZGJhY2s6ODIzNjg5NTc2NDUzNzM2Xzc3MjU0OTIwODE3NDYzOA==",
      "date":"2024-04-03T10:59:05.000Z",
      "text":"Happy birthday",
      "profileUrl":"https://www.facebook.com/sallyyuan.cataluna",
      "profilePicture":"https://scontent-qro1-1.xx.fbcdn.net/v/t39.30808-1/432762772_1579822216191606_7141109644871320577_n.jpg?stp=cp0_dst-jpg_p32x32&_nc_cat=105&ccb=1-7&_nc_sid=5f2048&_nc_ohc=acIvqUeSBPwQ7kNvgE_az6i&_nc_ht=scontent-qro1-1.xx&oh=00_AYA9hdcVBA0juCjthbKodtNykPg-4TP8flK23tPUyjMtxg&oe=6656220F",
      "profileId":"100024915288912",
      "profileName":"Sally Yuan",
      "likesCount":2,
      "commentsCount":"3k",
      "facebookId":"823689576453736",
      "postTitle":"Happy 90th birthday to United Nations Messenger of peace, Dr. Jane Goodall!\n\nThank you for your tireless commitment to protecting the environment. https://www.un.org/en/messengers-peace/jane-goodall",
      "pageAdLibrary":{
         "is_business_page_active":false,
         "id":"54779960819"
      }
   },
   {
      "facebookUrl":"https://www.facebook.com/unitednations/posts/pfbid045as8QKV2uLVYe2NumDPs7a68Hr4P5cjmoyMRo2e4dj4p3rp2gWNNj948Uu7BVcxl",
      "commentUrl":"https://www.facebook.com/unitednations/posts/pfbid045as8QKV2uLVYe2NumDPs7a68Hr4P5cjmoyMRo2e4dj4p3rp2gWNNj948Uu7BVcxl?comment_id=942669074190523",
      "id":"Y29tbWVudDo4MjM2ODk1NzY0NTM3MzZfOTQyNjY5MDc0MTkwNTIz",
      "feedbackId":"ZmVlZGJhY2s6ODIzNjg5NTc2NDUzNzM2Xzk0MjY2OTA3NDE5MDUyMw==",
      "date":"2024-04-03T09:03:29.000Z",
      "text":"Best wishes of Happy Birthday",
      "profileUrl":"https://www.facebook.com/people/Jamil-Mohammad/pfbid0M9N6BtGwe2g76dEPzMAsmRa4xUowvx8ohdMHbqHgCfssWyap6Gyr6RueezmvZeXml/",
      "profilePicture":"https://scontent-qro1-1.xx.fbcdn.net/v/t39.30808-1/299360656_105159285642689_4016523061778576423_n.jpg?stp=c0.5.32.32a_cp0_dst-jpg_p32x32&_nc_cat=108&ccb=1-7&_nc_sid=5f2048&_nc_ohc=5t--h0j5ZCoQ7kNvgGTA70Q&_nc_ht=scontent-qro1-1.xx&oh=00_AYCmvwuc_TDyRXqSnxu4BIgRI8-vMger8ybYjjIVyLzqAQ&oe=66560E59",
      "profileId":"pfbid0M9N6BtGwe2g76dEPzMAsmRa4xUowvx8ohdMHbqHgCfssWyap6Gyr6RueezmvZeXml",
      "profileName":"Jamil Mohammad",
      "likesCount":2,
      "commentsCount":2,
      "facebookId":"823689576453736",
      "postTitle":"Happy 90th birthday to United Nations Messenger of peace, Dr. Jane Goodall!\n\nThank you for your tireless commitment to protecting the environment. https://www.un.org/en/messengers-peace/jane-goodall",
      "pageAdLibrary":{
         "is_business_page_active":false,
         "id":"54779960819"
      }
   },
   {
      "facebookUrl":"https://www.facebook.com/unitednations/posts/pfbid045as8QKV2uLVYe2NumDPs7a68Hr4P5cjmoyMRo2e4dj4p3rp2gWNNj948Uu7BVcxl",
      "commentUrl":"https://www.facebook.com/unitednations/posts/pfbid045as8QKV2uLVYe2NumDPs7a68Hr4P5cjmoyMRo2e4dj4p3rp2gWNNj948Uu7BVcxl?comment_id=1520399748593664",
      "id":"Y29tbWVudDo4MjM2ODk1NzY0NTM3MzZfMTUyMDM5OTc0ODU5MzY2NA==",
      "feedbackId":"ZmVlZGJhY2s6ODIzNjg5NTc2NDUzNzM2XzE1MjAzOTk3NDg1OTM2NjQ=",
      "date":"2024-04-03T17:47:58.000Z",
      "text":"Happy Birthday. Thank you for doing what you do to make our planet a better place.",
      "profileUrl":"https://www.facebook.com/judy.haila",
      "profilePicture":"https://scontent-qro1-1.xx.fbcdn.net/v/t39.30808-1/275134277_4966796823374930_2877522878739290729_n.jpg?stp=cp0_dst-jpg_p32x32&_nc_cat=103&ccb=1-7&_nc_sid=5f2048&_nc_ohc=9V1V7Q7KK2kQ7kNvgEsWgNy&_nc_ht=scontent-qro1-1.xx&oh=00_AYAWX7bPcGp-Z_B1eRQNI7t7IPOh_yitTSbDC_ah2Fsrqg&oe=66561E87",
      "profileId":"pfbid02n7VKGoXEYpLj5vMDb8QCk2ZY7wbqqudAz25ftbqGwTm7D5vKPWw8qNtHwy5mqBiql",
      "profileName":"Judy Haila",
      "likesCount":1,
      "facebookId":"823689576453736",
      "postTitle":"Happy 90th birthday to United Nations Messenger of peace, Dr. Jane Goodall!\n\nThank you for your tireless commitment to protecting the environment. https://www.un.org/en/messengers-peace/jane-goodall",
      "pageAdLibrary":{
         "is_business_page_active":false,
         "id":"54779960819"
      }
   },
   {
      "facebookUrl":"https://www.facebook.com/unitednations/posts/pfbid0LmBjLodaYjFhvntY3rX4xB2cyrcUeXHuasXJNFgimkNX7NE76CjSEYCwwveF9v5ml",
      "commentUrl":"https://www.facebook.com/unitednations/posts/pfbid0LmBjLodaYjFhvntY3rX4xB2cyrcUeXHuasXJNFgimkNX7NE76CjSEYCwwveF9v5ml?comment_id=725209016432203",
      "id":"Y29tbWVudDo4MjMwMDMxMTMxODkwNDlfNzI1MjA5MDE2NDMyMjAz",
      "feedbackId":"ZmVlZGJhY2s6ODIzMDAzMTEzMTg5MDQ5XzcyNTIwOTAxNjQzMjIwMw==",
      "date":"2024-04-03T04:56:01.000Z",
      "text":"The main goal of all of us should be to build a.",
      "profileUrl":"https://www.facebook.com/people/%E0%A4%8F%E0%A4%95-%E0%A4%AF%E0%A5%81%E0%A4%A6%E0%A5%8D%E0%A4%A7-%E0%A4%AA%E0%A4%BE%E0%A4%96%E0%A4%82%E0%A4%A1%E0%A4%B5%E0%A4%BE%E0%A4%A6-%E0%A4%B5-%E0%A4%85%E0%A4%82%E0%A4%A7%E0%A4%B5%E0%A4%BF%E0%A4%B6%E0%A5%8D%E0%A4%B5%E0%A4%BE%E0%A4%B8-%E0%A4%95%E0%A5%87-%E0%A4%96%E0%A4%BF%E0%A4%B2%E0%A4%BE%E0%A4%AB/100087182205819/",
      "profilePicture":"https://scontent-mia3-1.xx.fbcdn.net/v/t39.30808-1/323627165_744006253911827_7048148636216151867_n.jpg?stp=cp0_dst-jpg_p32x32&_nc_cat=1&ccb=1-7&_nc_sid=5f2048&_nc_ohc=-W6fyfeqh90Q7kNvgEo1Dhk&_nc_ht=scontent-mia3-1.xx&oh=00_AYAbVOiiUsr4T3gB_TtcSKnTVgPPQyCjqIZSWbdg_Fp_gA&oe=6655F015",
      "profileId":"100087182205819",
      "profileName":"\u090f\u0915 \u092f\u0941\u0926\u094d\u0927 \u092a\u093e\u0916\u0902\u0921\u0935\u093e\u0926 \u0935 \u0905\u0902\u0927\u0935\u093f\u0936\u094d\u0935\u093e\u0938 \u0915\u0947 \u0916\u093f\u0932\u093e\u092b",
      "likesCount":1,
      "facebookId":"823003113189049",
      "postTitle":"Tuesday\u2019s World Autism Awareness Day is an opportunity to celebrate autistic people's invaluable contributions to communities around the world.\n\nhttps://www.un.org/en/observances/autism-day",
      "pageAdLibrary":{
         "is_business_page_active":false,
         "id":"54779960819"
      }
   },
   {
      "facebookUrl":"https://www.facebook.com/unitednations/posts/pfbid0LmBjLodaYjFhvntY3rX4xB2cyrcUeXHuasXJNFgimkNX7NE76CjSEYCwwveF9v5ml",
      "commentUrl":"https://www.facebook.com/unitednations/posts/pfbid0LmBjLodaYjFhvntY3rX4xB2cyrcUeXHuasXJNFgimkNX7NE76CjSEYCwwveF9v5ml?comment_id=7285294468185818",
      "id":"Y29tbWVudDo4MjMwMDMxMTMxODkwNDlfNzI4NTI5NDQ2ODE4NTgxOA==",
      "feedbackId":"ZmVlZGJhY2s6ODIzMDAzMTEzMTg5MDQ5XzcyODUyOTQ0NjgxODU4MTg=",
      "date":"2024-04-02T15:21:12.000Z",
      "text":"Thanks a lot to all of you do for huminity\ud83d\udc4d\u2764\ufe0f",
      "profilePicture":"https://scontent-mia3-2.xx.fbcdn.net/v/t39.30808-1/270937427_10159981558404284_638908987860740336_n.jpg?stp=cp0_dst-jpg_p32x32&_nc_cat=107&ccb=1-7&_nc_sid=5f2048&_nc_ohc=PHhePsErVjQQ7kNvgGrJyMm&_nc_ht=scontent-mia3-2.xx&oh=00_AYACThiBupa0vgg4_tTzU5mluYz-U5PtdMAOgh4wM_o6pw&oe=66562216",
      "profileId":"pfbid0aZ3q95k4ZMWH6T3XSSJybx5kLrSCXRW9ZFRoxyQT7ji1xsM9UL5LECHqdyKoEUzql",
      "profileName":"Ashraf Rahman",
      "likesCount":1,
      "commentsCount":2,
      "facebookId":"823003113189049",
      "postTitle":"Tuesday\u2019s World Autism Awareness Day is an opportunity to celebrate autistic people's invaluable contributions to communities around the world.\n\nhttps://www.un.org/en/observances/autism-day",
      "pageAdLibrary":{
         "is_business_page_active":false,
         "id":"54779960819"
      }
   },
   {
      "facebookUrl":"https://www.facebook.com/unitednations/posts/pfbid0LmBjLodaYjFhvntY3rX4xB2cyrcUeXHuasXJNFgimkNX7NE76CjSEYCwwveF9v5ml",
      "commentUrl":"https://www.facebook.com/unitednations/posts/pfbid0LmBjLodaYjFhvntY3rX4xB2cyrcUeXHuasXJNFgimkNX7NE76CjSEYCwwveF9v5ml?comment_id=1356776884997552",
      "id":"Y29tbWVudDo4MjMwMDMxMTMxODkwNDlfMTM1Njc3Njg4NDk5NzU1Mg==",
      "feedbackId":"ZmVlZGJhY2s6ODIzMDAzMTEzMTg5MDQ5XzEzNTY3NzY4ODQ5OTc1NTI=",
      "date":"2024-04-02T09:04:43.000Z",
      "text":"Awesome \ud83d\udc4f \nHappy autism day",
      "profileUrl":"https://www.facebook.com/JohnRexOmolleh",
      "profilePicture":"https://scontent-mia3-1.xx.fbcdn.net/v/t39.30808-1/309197230_519592410172584_4861032048929542076_n.jpg?stp=cp0_dst-jpg_p32x32&_nc_cat=108&ccb=1-7&_nc_sid=5f2048&_nc_ohc=oMVD2pt_vH0Q7kNvgHsX2fG&_nc_ht=scontent-mia3-1.xx&oh=00_AYBTI7kKqgEosZaWDAx25pDHD5A4-NRCv4sGl8aTBKE29A&oe=665610E2",
      "profileId":"100063654872822",
      "profileName":"Rex Omolleh Nairobi West Ward MCA.",
      "likesCount":0,
      "facebookId":"823003113189049",
      "postTitle":"Tuesday\u2019s World Autism Awareness Day is an opportunity to celebrate autistic people's invaluable contributions to communities around the world.\n\nhttps://www.un.org/en/observances/autism-day",
      "pageAdLibrary":{
         "is_business_page_active":false,
         "id":"54779960819"
      }
   },
   {
      "facebookUrl":"https://www.facebook.com/unitednations/posts/pfbid0LmBjLodaYjFhvntY3rX4xB2cyrcUeXHuasXJNFgimkNX7NE76CjSEYCwwveF9v5ml",
      "commentUrl":"https://www.facebook.com/unitednations/posts/pfbid0LmBjLodaYjFhvntY3rX4xB2cyrcUeXHuasXJNFgimkNX7NE76CjSEYCwwveF9v5ml?comment_id=1137554564162701",
      "id":"Y29tbWVudDo4MjMwMDMxMTMxODkwNDlfMTEzNzU1NDU2NDE2MjcwMQ==",
      "feedbackId":"ZmVlZGJhY2s6ODIzMDAzMTEzMTg5MDQ5XzExMzc1NTQ1NjQxNjI3MDE=",
      "date":"2024-04-02T10:59:46.000Z",
      "text":"and thank you lord and thank you God Amen",
      "profilePicture":"https://scontent-mia3-2.xx.fbcdn.net/v/t39.30808-1/333037585_1160783134622162_9177878163532549176_n.jpg?stp=cp6_dst-jpg_p32x32&_nc_cat=105&ccb=1-7&_nc_sid=5f2048&_nc_ohc=Zv2cvAptFvcQ7kNvgHOZHA-&_nc_ht=scontent-mia3-2.xx&oh=00_AYD8a37RnEBufpGmb_1ksIGJt1LoBImqIzQWpcuCjbrfcg&oe=665623BD",
      "profileId":"pfbid0txFVuZ1ib4vwyB1ieojzyWZ8DoWtG6sR2W8dHP6EHZ5Gmw2TBz4bVk1fiAxdbeKYl",
      "profileName":"Cynthia Keels",
      "likesCount":2,
      "commentsCount":5,
      "facebookId":"823003113189049",
      "postTitle":"Tuesday\u2019s World Autism Awareness Day is an opportunity to celebrate autistic people's invaluable contributions to communities around the world.\n\nhttps://www.un.org/en/observances/autism-day",
      "pageAdLibrary":{
         "is_business_page_active":false,
         "id":"54779960819"
      }
   },
   {
      "facebookUrl":"https://www.facebook.com/malick.konate.56/posts/7637165919660332",
      "commentUrl":"https://www.facebook.com/malick.konate.56/posts/7637165919660332?comment_id=426597729990268",
      "id":"Y29tbWVudDo3NjM3MTY1OTE5NjYwMzMyXzQyNjU5NzcyOTk5MDI2OA==",
      "feedbackId":"ZmVlZGJhY2s6NzYzNzE2NTkxOTY2MDMzMl80MjY1OTc3Mjk5OTAyNjg=",
      "date":"2024-04-22T19:12:51.000Z",
      "profilePicture":"https://scontent-iad3-1.xx.fbcdn.net/v/t39.30808-1/438766676_2600161276822400_7252918841152369707_n.jpg?stp=c0.1.32.32a_cp0_dst-jpg_p32x32&_nc_cat=107&ccb=1-7&_nc_sid=5f2048&_nc_ohc=Ycn7K5R5ZxkQ7kNvgG4zTRX&_nc_ht=scontent-iad3-1.xx&oh=00_AYCET4U3_1kc2jAEjTmKVNkDviWu0vrTsjEtqDXIBY4UIA&oe=665B7E0B",
      "profileId":"pfbid02wia9a2GDCRqQH2aSty35ZBwNMHZpys2UajNSYaW1sKLxNxw22Ebc1Vk64KusqWnxl",
      "profileName":"Bah Rahman Bouba",
      "likesCount":null,
      "threadingDepth":1,
      "replyToCommentId":"Y29tbWVudDo3NjM3MTY1OTE5NjYwMzMyXzc5MTgyMjgxMTQ4OTUwNDY=",
      "facebookId":"7637165919660332",
      "postTitle":"Avec la Russie, les promesses sont de deux voire trois ans sauf si ce sont des armes. En revanche, les partenaires dit \"occidentaux\" sont prêts à débloquer immédiatement 60 millions de dollars pour soutenir Énergie Du Mali dans l'achat de carburant ou d'énergie. \n\nProchainement, nous irons à la banque des BRICS.\n#Bèki_Takè",
      "pageAdLibrary":{
         "is_business_page_active":false,
         "id":"102665082649895"
      }
   },
   {
      "url":"https://www.facebook.com/1234567865",
      "error":"not_available",
      "errorDescription":"This content isn't available because the owner only shared it with a small group of people or changed who can see it, or it's been deleted."
   },
   {
      "url":"https://www.facebook.com/12321321321/videos/4242525241421321/",
      "video_home_www_trending_hashtag":[]
   }
]
